<?xml version="1.0" encoding="utf-8"?>
<!-- Generator: Adobe Illustrator 22.0.0, SVG Export Plug-In . SVG Version: 6.00 Build 0)  -->
<svg version="1.1" id="Layer_1" xmlns="http://www.w3.org/2000/svg" xmlns:xlink="http://www.w3.org/1999/xlink" x="0px" y="0px"
	 viewBox="0 0 224.6 11.7" style="enable-background:new 0 0 224.6 11.7;" xml:space="preserve">
<style type="text/css">
	.st0{fill:#CCCCCC;}
</style>
<title>Brush-stroke</title>
<path class="st0" d="M222.3,3c-17.3-1-34.7,0.3-52,0.5c-17.6,0.1-35.2,1.2-52.8,1c-8.3-0.1-16.6,0.5-24.9,0.8
	c-8.9,0.3-17.7-0.4-26.5-1.1c-8.7-0.7-17.5-0.9-26.1-1.3c-4.4-0.4-8.8-0.4-13.2-0.2c-4.2,0.3-8.4,1.3-12.7,1.3C10,3.8,6,4.8,2.4,6.6
	C-0.2,7.8-0.3,9,2.9,9.1C7.2,9,11.4,8.6,15.7,8c4.3-0.4,8.7-0.3,13.1,0c8.4,0.4,16.9,0.7,25.3,1.3c8.5,0.8,17,1.2,25.6,1.1
	c8.3-0.2,16.6-0.9,24.8-0.9c17.2,0.1,34.5-0.9,51.7-1C197,8.4,184.6,6.5,208.5,8c3.9,0.2,7.8-0.5,11.4-1.9
	C220.7,5.8,225.8,3.2,222.3,3L222.3,3z"/>
</svg>
